drawing\shapes\IShape.class
drawing\commands\GroupCommand.class
drawing\commands\RedoCommand.class
drawing\handlers\UndoButtonHandler.class
drawing\commands\EdgeStrategyCommand.class
drawing\commands\DuplicateCommand.class
drawing\ui\DrawingPane.class
drawing\ui\ButtonsFactory.class
drawing\handlers\RectangleButtonHandler.class
drawing\ui\ToolBar.class
drawing\handlers\MouseMoveHandler.class
drawing\commands\ClearCommand.class
drawing\handlers\DuplicateButtonHandler.class
drawing\shapes\Edge.class
drawing\commands\EdgeCommand.class
drawing\Observer.class
drawing\handlers\EdgeStrategyButtonHandler.class
drawing\handlers\EdgeButtonHandler.class
drawing\handlers\TextButtonHandler.class
drawing\commands\ICommand.class
drawing\shapes\EdgeOrthogonalStrategy.class
drawing\shapes\TextDecorator.class
drawing\handlers\EllipseButtonHandler.class
drawing\handlers\RedoButtonHandler.class
drawing\ui\ExceptionBar.class
drawing\ui\PaintApplication.class
drawing\shapes\ShapeGroup.class
drawing\ui\StatutBar.class
drawing\commands\UngroupCommand.class
drawing\handlers\ShapeButtonHandler.class
drawing\commands\CommandHistory.class
drawing\commands\ShapeButtonCommand.class
drawing\shapes\SimpleEdgeStrategy.class
drawing\commands\DeleteCommand.class
drawing\handlers\TriangleButtonHandler.class
drawing\commands\UndoCommand.class
drawing\handlers\HandlerActionEvent.class
drawing\handlers\SelectionHandler.class
drawing\shapes\IEdgeStrategy.class
drawing\shapes\ShapeAdapter.class
drawing\commands\TextCommand.class
